{
	"variables": {
		"source_ami": "{{env `LINUXAMI`}}",
		"ami_users": "{{env `ACCOUNT`}}",
		"snapshot_users": "{{env `ACCOUNT`}}"
	},
	"builders": [{
		"type": "amazon-ebs",
		"name": "build 01",
		"region": "us-east-1",
		"source_ami": "{{user `source_ami`}}",
		"instance_type": "m3.medium",
		"iam_instance_profile": "Packer-IAM-Instance-Role",
		"ssh_username": "ec2-user",
		"ami_regions": ["us-east-1", "us-east-2", "us-west-1", "us-west-2", "ap-northeast-1", "ap-northeast-2", "ap-south-1", "ap-southeast-1", "ap-southeast-2", "ca-central-1", "eu-west-1", "eu-west-2", "sa-east-1"],
		"ami_users": "{{user `ami_users`}}",
		"snapshot_users": "{{user `snapshot_users`}}",
		"ami_name": "Amazon-Linux-AMI-HVM-{{isotime \"2006-01-02\"}}"
	}],
	"provisioners": [{
		"type": "shell",
		"inline": [
			"sudo aws s3 cp s3://S3BUCKET/Linux/amazon.sh .",
			"sudo chmod +x amazon.sh",
			"sudo bash ./amazon.sh",
			"sudo rm ./amazon.sh",
			"sudo rm -rf /home/ec2-user/.ssh/authorized_keys"
		]
	}]
}
